{\r\n"page":"1",\r\n"per_page":5,\r\n"pages":50,\r\n"total":750,\r\n"shots": [\r\n{\r\n"id":2138242,\r\n"title":"HBO Silicon Valley -- Hooli Logo",\r\n"description":"<p>Every now and then a fun, quick little project shows up in my inbox. Super stoked to have been able to update the Hooli logo for HBO's Silicon Valley back in August. I also did a few others for them and it seems they used my XYZ concept as well as a variation of one of my older Nucleus concepts.</p>\n\n<p>If you haven't seen it -- it's a pretty spot on show about the valley created by Mike Judge, the creator of Beavis and Butthead that as a kid I always wanted to watch but never was allowed. Unless of course my older brother allowed me to watch it with him when our parents didn't know ;) Regardless, stoked to pay Judge back for the laughs with a little bit of hard work.</p>\n\n<p><a href=\"https://www.dropbox.com/s/2qvdo4k0tsg2ltv/Hooli_Concepts_DannPetty_Round3.pdf?dl=0\" rel=\"nofollow\">Here's one of my presentation decks I had sent them.</a></p>\n\n<p><a href=\"https://twitter.com/DannPetty/status/607778517892218880\" rel=\"nofollow\">Keep an eye out on the show's credits</a> -- you'll see my little name pop up for being a creative advisor for show.</p>",\r\n"height":600,\r\n"width":800,\r\n"likes_count":478,\r\n"comments_count":31,\r\n"rebounds_count":0,\r\n"url":"http://dribbble.com/shots/2138242-HBO-Silicon-Valley-Hooli-Logo",\r\n"short_url":"http://drbl.in/pkOc",\r\n"views_count":6848,\r\n"rebound_source_id": null,\r\n"image_url":"https://d13yacurqjgara.cloudfront.net/users/3132/screenshots/2138242/hooli.jpg",\r\n"image_teaser_url":"https://d13yacurqjgara.cloudfront.net/users/3132/screenshots/2138242/hooli_teaser.jpg",\r\n"image_400_url":"https://d13yacurqjgara.cloudfront.net/users/3132/screenshots/2138242/hooli_1x.jpg",\r\n"player":{\r\n"id":3132,\r\n"name":"Dann Petty",\r\n"location":"San Francisco, California",\r\n"followers_count":14987,\r\n"draftees_count":5,\r\n"likes_count":535,\r\n"likes_received_count":34098,\r\n"comments_count":425,\r\n"comments_received_count":2451,\r\n"rebounds_count":2,\r\n"rebounds_received_count":18,\r\n"url":"http://dribbble.com/dannpetty",\r\n"avatar_url":"https://d13yacurqjgara.cloudfront.net/users/3132/avatars/normal/00ee879204a3fcfed70fd9c152eaf85d.jpeg?1431548728",\r\n"username":"dannpetty",\r\n"twitter_screen_name":"dannpetty",\r\n"website_url":"http://www.behance.net/dannpetty",\r\n"drafted_by_player_id":394,\r\n"shots_count":125,\r\n"following_count":999,\r\n"created_at":"2010/06/17 20:00:46 -0400"\r\n},\r\n"created_at":"2015/07/08 00:24:08 -0400"\r\n},\r\n{\r\n"id":2138450,\r\n"title":"Gif For Social Network",\r\n"description":"<p>The summer is gaining momentum and I want to share with you some bright hot colors and motion! So here is a small interaction for one of my projects. You saw some <a href=\"https://dribbble.com/shots/2129486-Social-Network?list=users&amp;offset=0\" rel=\"nofollow\">Social Network</a> UI screens last week and here is the animation. These are simple motions based on colorful UI accents rather than something ultra-new. The main idea is to show that user can reach each app section from one screen and find the way to the start point.</p>\n\n<p><strong>Follow my and my <a href=\"https://dribbble.com/Tubik\" rel=\"nofollow\">team's</a> updates, we are working efficiently to share with you our UI/UX design, animation and illustration, solving problems and just interesting moments from our creative life. You can press letter \"L\" without any doubts on your keyboard if you like the shot;) Have a nice day and amazing summer (or romantic winter, hey Australia)!</strong></p>\n\n<p><a href=\"https://www.behance.net/Sergii_Valiukh#\" rel=\"nofollow\">Behance</a> | <a href=\"http://instagram.com/sergii_valiukh\" rel=\"nofollow\">Instagram</a> | <a href=\"https://twitter.com/Sergey_Valiukh\" rel=\"nofollow\">Twitter</a> | <a href=\"https://www.facebook.com/tubikstudio\" rel=\"nofollow\">Facebook</a> | <a href=\"http://tubikstudio.com/\" rel=\"nofollow\">Tubik</a>\n</p>",\r\n"height":600,\r\n"width":800,\r\n"likes_count":364,\r\n"comments_count":14,\r\n"rebounds_count":0,\r\n"url":"http://dribbble.com/shots/2138450-Gif-For-Social-Network",\r\n"short_url":"http://drbl.in/pkSc",\r\n"views_count":3192,\r\n"rebound_source_id":2129486,\r\n"image_url":"https://d13yacurqjgara.cloudfront.net/users/22691/screenshots/2138450/gif_for_social_network_dribbble_800x600.gif",\r\n"image_teaser_url":"https://d13yacurqjgara.cloudfront.net/users/22691/screenshots/2138450/gif_for_social_network_dribbble_800x600_teaser.gif",\r\n"image_400_url":"https://d13yacurqjgara.cloudfront.net/users/22691/screenshots/2138450/gif_for_social_network_dribbble_800x600_1x.gif",\r\n"player":{\r\n"id":22691,\r\n"name":"Sergey Valiukh",\r\n"location":"Dnipropetrovsk, Ukraine",\r\n"followers_count":7849,\r\n"draftees_count":8,\r\n"likes_count":2726,\r\n"likes_received_count":29138,\r\n"comments_count":2087,\r\n"comments_received_count":1793,\r\n"rebounds_count":14,\r\n"rebounds_received_count":17,\r\n"url":"http://dribbble.com/SergeyValiukh",\r\n"avatar_url":"https://d13yacurqjgara.cloudfront.net/users/22691/avatars/normal/15fd08cde1416b3e4b3f3eb75a0d6779.jpg?1422618998",\r\n"username":"SergeyValiukh",\r\n"twitter_screen_name":"Sergey_Valiukh",\r\n"website_url":"http://valiukhsergey.com/",\r\n"drafted_by_player_id":3373,\r\n"shots_count":77,\r\n"following_count":218,\r\n"created_at":"2011/03/10 10:32:52 -0500"\r\n},\r\n"created_at":"2015/07/08 04:32:13 -0400"\r\n},\r\n{\r\n"id":2138698,\r\n"title":"Widgets & News Article",\r\n"description":"<p>Something I am working on.</p>\n\n<p><strong>Press L</strong> to show some love</p>\n\n<p><a href=\"https://dribbble.com/InVisionApp\" rel=\"nofollow\">Follow the InVision Team</a></p>\n\n<p>Not collaborating with InVision yet? <a href=\"http://www.invisionapp.com/\" rel=\"nofollow\">Sign up for free!</a>\n</p>",\r\n"height":600,\r\n"width":800,\r\n"likes_count":301,\r\n"comments_count":17,\r\n"rebounds_count":0,\r\n"url":"http://dribbble.com/shots/2138698-Widgets-News-Article",\r\n"short_url":"http://drbl.in/pkWQ",\r\n"views_count":2585,\r\n"rebound_source_id": null,\r\n"image_url":"https://d13yacurqjgara.cloudfront.net/users/62319/screenshots/2138698/shot.png",\r\n"image_teaser_url":"https://d13yacurqjgara.cloudfront.net/users/62319/screenshots/2138698/shot_teaser.png",\r\n"image_400_url":"https://d13yacurqjgara.cloudfront.net/users/62319/screenshots/2138698/shot_1x.png",\r\n"player":{\r\n"id":62319,\r\n"name":"Anton Aheichanka",\r\n"location":"Denver",\r\n"followers_count":3828,\r\n"draftees_count":3,\r\n"likes_count":2266,\r\n"likes_received_count":14974,\r\n"comments_count":72,\r\n"comments_received_count":505,\r\n"rebounds_count":1,\r\n"rebounds_received_count":5,\r\n"url":"http://dribbble.com/madebyanton",\r\n"avatar_url":"https://d13yacurqjgara.cloudfront.net/users/62319/avatars/normal/e15c37e3a8311103e5b09b5861640ed7.jpg?1433336610",\r\n"username":"madebyanton",\r\n"twitter_screen_name":"madebyanton",\r\n"website_url": null,\r\n"drafted_by_player_id":39,\r\n"shots_count":30,\r\n"following_count":327,\r\n"created_at":"2011/09/16 18:18:24 -0400"\r\n},\r\n"created_at":"2015/07/08 08:04:10 -0400"\r\n},\r\n{\r\n"id":2138265,\r\n"title":"Pokébiome 007: Squirtle",\r\n"description":"<p>Well this one shouldn't be a surprise. Squirtle finally joins <a href=\"http://drbl.in/oMES\" rel=\"nofollow\">Bulbasaur</a> and <a href=\"http://drbl.in/oRTj\" rel=\"nofollow\">Charmander</a>, completing the Pokébiome trilogy! Again, Steven Crosby's (<a href=\"http://rocketbloc.com/\" rel=\"nofollow\">rocketbloc™</a>) illustrations were a huge inspiration, and it was super fun bringing them to life through the magic of After Effects.</p>\n\n<p>Definitely check out the attached 1080p MP4 with sound (this GIF is quite large so it might not play back smoothly). Or you can view this, and all the others, here:</p>\n\n<p>http://schlem.me/pokebiome.html</p>",\r\n"height":600,\r\n"width":800,\r\n"likes_count":252,\r\n"comments_count":10,\r\n"rebounds_count":0,\r\n"url":"http://dribbble.com/shots/2138265-Pok-biome-007-Squirtle",\r\n"short_url":"http://drbl.in/pkOz",\r\n"views_count":2034,\r\n"rebound_source_id": null,\r\n"image_url":"https://d13yacurqjgara.cloudfront.net/users/4874/screenshots/2138265/pokebiome007_gif.gif",\r\n"image_teaser_url":"https://d13yacurqjgara.cloudfront.net/users/4874/screenshots/2138265/pokebiome007_gif_teaser.gif",\r\n"image_400_url":"https://d13yacurqjgara.cloudfront.net/users/4874/screenshots/2138265/pokebiome007_gif_1x.gif",\r\n"player":{\r\n"id":4874,\r\n"name":"John Schlemmer",\r\n"location":"San Francisco, CA",\r\n"followers_count":4025,\r\n"draftees_count":6,\r\n"likes_count":399,\r\n"likes_received_count":8441,\r\n"comments_count":59,\r\n"comments_received_count":439,\r\n"rebounds_count":15,\r\n"rebounds_received_count":21,\r\n"url":"http://dribbble.com/johnschlemmer",\r\n"avatar_url":"https://d13yacurqjgara.cloudfront.net/users/4874/avatars/normal/92cc5a7619400c464b2bc7dac7443000.jpg?1429807943",\r\n"username":"johnschlemmer",\r\n"twitter_screen_name":"JohnSchlemmer",\r\n"website_url":"http://www.schlem.me/",\r\n"drafted_by_player_id":1855,\r\n"shots_count":52,\r\n"following_count":132,\r\n"created_at":"2010/10/04 11:32:18 -0400"\r\n},\r\n"created_at":"2015/07/08 00:52:27 -0400"\r\n},\r\n{\r\n"id":2138996,\r\n"title":"Monkey",\r\n"description":"<p>More detailed then I wanted too but still a fun exploration in this style. </p>",\r\n"height":600,\r\n"width":800,\r\n"likes_count":202,\r\n"comments_count":13,\r\n"rebounds_count":0,\r\n"url":"http://dribbble.com/shots/2138996-Monkey",\r\n"short_url":"http://drbl.in/plcC",\r\n"views_count":717,\r\n"rebound_source_id":1960729,\r\n"image_url":"https://d13yacurqjgara.cloudfront.net/users/31752/screenshots/2138996/monkey_final.png",\r\n"image_teaser_url":"https://d13yacurqjgara.cloudfront.net/users/31752/screenshots/2138996/monkey_final_teaser.png",\r\n"image_400_url":"https://d13yacurqjgara.cloudfront.net/users/31752/screenshots/2138996/monkey_final_1x.png",\r\n"player":{\r\n"id":31752,\r\n"name":"Nick Slater",\r\n"location":"Palo Alto, Ca",\r\n"followers_count":33077,\r\n"draftees_count":14,\r\n"likes_count":45987,\r\n"likes_received_count":198908,\r\n"comments_count":7720,\r\n"comments_received_count":13561,\r\n"rebounds_count":255,\r\n"rebounds_received_count":387,\r\n"url":"http://dribbble.com/slaterdesign",\r\n"avatar_url":"https://d13yacurqjgara.cloudfront.net/users/31752/avatars/normal/3207fbd57de3dafb59f2c3fc913460a6.png?1410553460",\r\n"username":"slaterdesign",\r\n"twitter_screen_name":"slaterdesign",\r\n"website_url": null,\r\n"drafted_by_player_id":2045,\r\n"shots_count":588,\r\n"following_count":1637,\r\n"created_at":"2011/04/30 19:12:27 -0400"\r\n},\r\n"created_at":"2015/07/08 11:07:38 -0400"\r\n}]\r\n}