{\r\n"page":"3",\r\n"per_page":5,\r\n"pages":50,\r\n"total":750,\r\n"shots": [\r\n{\r\n"id":2138835,\r\n"title":"Keepin' dry",\r\n"description":"<p>It's winter for us in the southern hemisphere - don't forget your umbrella!</p>",\r\n"height":300,\r\n"width":400,\r\n"likes_count":192,\r\n"comments_count":12,\r\n"rebounds_count":0,\r\n"url":"http://dribbble.com/shots/2138835-Keepin-dry",\r\n"short_url":"http://drbl.in/pkZx",\r\n"views_count":1167,\r\n"rebound_source_id": null,\r\n"image_url":"https://d13yacurqjgara.cloudfront.net/users/59947/screenshots/2138835/winter400x300---2.gif",\r\n"image_teaser_url":"https://d13yacurqjgara.cloudfront.net/users/59947/screenshots/2138835/winter400x300---2_teaser.gif",\r\n"player":{\r\n"id":59947,\r\n"name":"MUTI",\r\n"location":"Cape Town, South Africa",\r\n"followers_count":11050,\r\n"draftees_count":2,\r\n"likes_count":754,\r\n"likes_received_count":83985,\r\n"comments_count":258,\r\n"comments_received_count":3603,\r\n"rebounds_count":161,\r\n"rebounds_received_count":170,\r\n"url":"http://dribbble.com/studioMUTI",\r\n"avatar_url":"https://d13yacurqjgara.cloudfront.net/users/59947/avatars/normal/MUTI-01.jpg?1390990460",\r\n"username":"studioMUTI",\r\n"twitter_screen_name":"StudioMuti",\r\n"website_url":"http://www.studiomuti.co.za",\r\n"drafted_by_player_id":6133,\r\n"shots_count":540,\r\n"following_count":207,\r\n"created_at":"2011/09/06 12:01:24 -0400"\r\n},\r\n"created_at":"2015/07/08 09:36:51 -0400"\r\n},\r\n{\r\n"id":2138554,\r\n"title":"Lambo",\r\n"description":"<p>Y'all like cars, right?</p>",\r\n"height":600,\r\n"width":800,\r\n"likes_count":193,\r\n"comments_count":4,\r\n"rebounds_count":0,\r\n"url":"http://dribbble.com/shots/2138554-Lambo",\r\n"short_url":"http://drbl.in/pkUc",\r\n"views_count":881,\r\n"rebound_source_id": null,\r\n"image_url":"https://d13yacurqjgara.cloudfront.net/users/35381/screenshots/2138554/car2.png",\r\n"image_teaser_url":"https://d13yacurqjgara.cloudfront.net/users/35381/screenshots/2138554/car2_teaser.png",\r\n"image_400_url":"https://d13yacurqjgara.cloudfront.net/users/35381/screenshots/2138554/car2_1x.png",\r\n"player":{\r\n"id":35381,\r\n"name":"Meg Robichaud",\r\n"location":"Vancouver",\r\n"followers_count":11354,\r\n"draftees_count":12,\r\n"likes_count":30157,\r\n"likes_received_count":55573,\r\n"comments_count":298,\r\n"comments_received_count":2989,\r\n"rebounds_count":32,\r\n"rebounds_received_count":92,\r\n"url":"http://dribbble.com/megdraws",\r\n"avatar_url":"https://d13yacurqjgara.cloudfront.net/users/35381/avatars/normal/meg4.png?1401981546",\r\n"username":"megdraws",\r\n"twitter_screen_name":"MegDraws",\r\n"website_url":"http://meg-draws.com",\r\n"drafted_by_player_id":3981,\r\n"shots_count":396,\r\n"following_count":371,\r\n"created_at":"2011/05/16 18:10:42 -0400"\r\n},\r\n"created_at":"2015/07/08 06:20:48 -0400"\r\n},\r\n{\r\n"id":2138568,\r\n"title":"2",\r\n"description": null,\r\n"height":300,\r\n"width":400,\r\n"likes_count":183,\r\n"comments_count":11,\r\n"rebounds_count":0,\r\n"url":"http://dribbble.com/shots/2138568-2",\r\n"short_url":"http://drbl.in/pkUq",\r\n"views_count":1135,\r\n"rebound_source_id": null,\r\n"image_url":"https://d13yacurqjgara.cloudfront.net/users/60166/screenshots/2138568/2.jpg",\r\n"image_teaser_url":"https://d13yacurqjgara.cloudfront.net/users/60166/screenshots/2138568/2_teaser.jpg",\r\n"player":{\r\n"id":60166,\r\n"name":"Yoga Perdana",\r\n"location":"Indonesia",\r\n"followers_count":20480,\r\n"draftees_count":5,\r\n"likes_count":10662,\r\n"likes_received_count":74328,\r\n"comments_count":1978,\r\n"comments_received_count":2988,\r\n"rebounds_count":6,\r\n"rebounds_received_count":38,\r\n"url":"http://dribbble.com/yoga",\r\n"avatar_url":"https://d13yacurqjgara.cloudfront.net/users/60166/avatars/normal/yogaLogo.png?1390870645",\r\n"username":"yoga",\r\n"twitter_screen_name":"yoga7",\r\n"website_url":"http://yogaportfolio.tumblr.com",\r\n"drafted_by_player_id":32388,\r\n"shots_count":171,\r\n"following_count":1228,\r\n"created_at":"2011/09/07 07:10:00 -0400"\r\n},\r\n"created_at":"2015/07/08 06:28:24 -0400"\r\n},\r\n{\r\n"id":2138204,\r\n"title":"Grocery Getter",\r\n"description": null,\r\n"height":600,\r\n"width":800,\r\n"likes_count":197,\r\n"comments_count":8,\r\n"rebounds_count":0,\r\n"url":"http://dribbble.com/shots/2138204-Grocery-Getter",\r\n"short_url":"http://drbl.in/pkNq",\r\n"views_count":1168,\r\n"rebound_source_id": null,\r\n"image_url":"https://d13yacurqjgara.cloudfront.net/users/11867/screenshots/2138204/d1.jpg",\r\n"image_teaser_url":"https://d13yacurqjgara.cloudfront.net/users/11867/screenshots/2138204/d1_teaser.jpg",\r\n"image_400_url":"https://d13yacurqjgara.cloudfront.net/users/11867/screenshots/2138204/d1_1x.jpg",\r\n"player":{\r\n"id":11867,\r\n"name":"Timothy J. Reynolds",\r\n"location":"Milwaukee, WI",\r\n"followers_count":20639,\r\n"draftees_count":16,\r\n"likes_count":25893,\r\n"likes_received_count":90127,\r\n"comments_count":3456,\r\n"comments_received_count":5708,\r\n"rebounds_count":146,\r\n"rebounds_received_count":147,\r\n"url":"http://dribbble.com/turnislefthome",\r\n"avatar_url":"https://d13yacurqjgara.cloudfront.net/users/11867/avatars/normal/95017d34c19948a322f660a5e4e6f6ae.jpg?1419025083",\r\n"username":"turnislefthome",\r\n"twitter_screen_name":"turnislefthome",\r\n"website_url":"http://www.turnislefthome.com",\r\n"drafted_by_player_id":25844,\r\n"shots_count":449,\r\n"following_count":674,\r\n"created_at":"2011/01/18 15:51:51 -0500"\r\n},\r\n"created_at":"2015/07/07 23:18:38 -0400"\r\n},\r\n{\r\n"id":2138503,\r\n"title":"The Future",\r\n"description": null,\r\n"height":600,\r\n"width":800,\r\n"likes_count":154,\r\n"comments_count":8,\r\n"rebounds_count":0,\r\n"url":"http://dribbble.com/shots/2138503-The-Future",\r\n"short_url":"http://drbl.in/pkTd",\r\n"views_count":948,\r\n"rebound_source_id": null,\r\n"image_url":"https://d13yacurqjgara.cloudfront.net/users/4370/screenshots/2138503/the_future.jpg",\r\n"image_teaser_url":"https://d13yacurqjgara.cloudfront.net/users/4370/screenshots/2138503/the_future_teaser.jpg",\r\n"image_400_url":"https://d13yacurqjgara.cloudfront.net/users/4370/screenshots/2138503/the_future_1x.jpg",\r\n"player":{\r\n"id":4370,\r\n"name":"Dan Matutina",\r\n"location":"Philippines",\r\n"followers_count":10812,\r\n"draftees_count":9,\r\n"likes_count":478,\r\n"likes_received_count":48193,\r\n"comments_count":404,\r\n"comments_received_count":2699,\r\n"rebounds_count":51,\r\n"rebounds_received_count":48,\r\n"url":"http://dribbble.com/twistedfork",\r\n"avatar_url":"https://d13yacurqjgara.cloudfront.net/users/4370/avatars/normal/DMat.jpg?1390460323",\r\n"username":"twistedfork",\r\n"twitter_screen_name":"danmatutina",\r\n"website_url":"http://twistedfork.me",\r\n"drafted_by_player_id":2860,\r\n"shots_count":345,\r\n"following_count":315,\r\n"created_at":"2010/09/05 06:27:57 -0400"\r\n},\r\n"created_at":"2015/07/08 05:24:20 -0400"\r\n},\r\n{\r\n"id":2138802,\r\n"title":"dino",\r\n"description":"<p>New poster in the works.</p>",\r\n"height":600,\r\n"width":800,\r\n"likes_count":150,\r\n"comments_count":14,\r\n"rebounds_count":0,\r\n"url":"http://dribbble.com/shots/2138802-dino",\r\n"short_url":"http://drbl.in/pkYQ",\r\n"views_count":540,\r\n"rebound_source_id": null,\r\n"image_url":"https://d13yacurqjgara.cloudfront.net/users/2693/screenshots/2138802/dino.jpg",\r\n"image_teaser_url":"https://d13yacurqjgara.cloudfront.net/users/2693/screenshots/2138802/dino_teaser.jpg",\r\n"image_400_url":"https://d13yacurqjgara.cloudfront.net/users/2693/screenshots/2138802/dino_1x.jpg",\r\n"player":{\r\n"id":2693,\r\n"name":"Ryan Brinkerhoff",\r\n"location":"grand rapids, mi",\r\n"followers_count":7375,\r\n"draftees_count":9,\r\n"likes_count":648,\r\n"likes_received_count":36438,\r\n"comments_count":256,\r\n"comments_received_count":2459,\r\n"rebounds_count":98,\r\n"rebounds_received_count":102,\r\n"url":"http://dribbble.com/bandito_design_co",\r\n"avatar_url":"https://d13yacurqjgara.cloudfront.net/users/2693/avatars/normal/tumblr_m0zfgpo25P1qdvls7o1_12802.jpg?1402951144",\r\n"username":"bandito_design_co",\r\n"twitter_screen_name":"BRINKERHOFF",\r\n"website_url":"http://www.banditodesignco.com",\r\n"drafted_by_player_id":1817,\r\n"shots_count":376,\r\n"following_count":306,\r\n"created_at":"2010/06/04 11:34:09 -0400"\r\n},\r\n"created_at":"2015/07/08 09:19:08 -0400"\r\n},\r\n{\r\n"id":2138660,\r\n"title":"Whistler (Canada) Map",\r\n"description": null,\r\n"height":600,\r\n"width":800,\r\n"likes_count":145,\r\n"comments_count":3,\r\n"rebounds_count":0,\r\n"url":"http://dribbble.com/shots/2138660-Whistler-Canada-Map",\r\n"short_url":"http://drbl.in/pkWe",\r\n"views_count":666,\r\n"rebound_source_id": null,\r\n"image_url":"https://d13yacurqjgara.cloudfront.net/users/320587/screenshots/2138660/whistler_map.jpg",\r\n"image_teaser_url":"https://d13yacurqjgara.cloudfront.net/users/320587/screenshots/2138660/whistler_map_teaser.jpg",\r\n"image_400_url":"https://d13yacurqjgara.cloudfront.net/users/320587/screenshots/2138660/whistler_map_1x.jpg",\r\n"player":{\r\n"id":320587,\r\n"name":"Owen Davey",\r\n"location":"Leicestershire UK",\r\n"followers_count":3915,\r\n"draftees_count":0,\r\n"likes_count":277,\r\n"likes_received_count":17140,\r\n"comments_count":52,\r\n"comments_received_count":762,\r\n"rebounds_count":14,\r\n"rebounds_received_count":16,\r\n"url":"http://dribbble.com/owendaveydraws",\r\n"avatar_url":"https://d13yacurqjgara.cloudfront.net/users/320587/avatars/normal/Self_Portrait.jpg?1367402637",\r\n"username":"owendaveydraws",\r\n"twitter_screen_name":"owendaveydraws",\r\n"website_url":"http://www.owendavey.com/",\r\n"drafted_by_player_id":287672,\r\n"shots_count":176,\r\n"following_count":69,\r\n"created_at":"2013/04/20 15:16:57 -0400"\r\n},\r\n"created_at":"2015/07/08 07:40:57 -0400"\r\n},\r\n{\r\n"id":2138897,\r\n"title":"Thank You",\r\n"description": null,\r\n"height":600,\r\n"width":800,\r\n"likes_count":132,\r\n"comments_count":1,\r\n"rebounds_count":0,\r\n"url":"http://dribbble.com/shots/2138897-Thank-You",\r\n"short_url":"http://drbl.in/plaH",\r\n"views_count":461,\r\n"rebound_source_id": null,\r\n"image_url":"https://d13yacurqjgara.cloudfront.net/users/47000/screenshots/2138897/thank_you_dribbble.jpg",\r\n"image_teaser_url":"https://d13yacurqjgara.cloudfront.net/users/47000/screenshots/2138897/thank_you_dribbble_teaser.jpg",\r\n"image_400_url":"https://d13yacurqjgara.cloudfront.net/users/47000/screenshots/2138897/thank_you_dribbble_1x.jpg",\r\n"player":{\r\n"id":47000,\r\n"name":"Pavlov Visuals",\r\n"location":"Amsterdam",\r\n"followers_count":5404,\r\n"draftees_count":11,\r\n"likes_count":1633,\r\n"likes_received_count":25774,\r\n"comments_count":751,\r\n"comments_received_count":1579,\r\n"rebounds_count":31,\r\n"rebounds_received_count":33,\r\n"url":"http://dribbble.com/pavlov",\r\n"avatar_url":"https://d13yacurqjgara.cloudfront.net/users/47000/avatars/normal/1525224_680808335275224_974015795_n.jpg?1390912914",\r\n"username":"pavlov",\r\n"twitter_screen_name":"pavlovvisuals",\r\n"website_url":"http://www.pavlovvisuals.com",\r\n"drafted_by_player_id":5000,\r\n"shots_count":193,\r\n"following_count":223,\r\n"created_at":"2011/07/21 00:10:09 -0400"\r\n},\r\n"created_at":"2015/07/08 10:07:55 -0400"\r\n},\r\n{\r\n"id":2138720,\r\n"title":"Chameleon",\r\n"description": null,\r\n"height":600,\r\n"width":800,\r\n"likes_count":139,\r\n"comments_count":11,\r\n"rebounds_count":0,\r\n"url":"http://dribbble.com/shots/2138720-Chameleon",\r\n"short_url":"http://drbl.in/pkXm",\r\n"views_count":579,\r\n"rebound_source_id": null,\r\n"image_url":"https://d13yacurqjgara.cloudfront.net/users/175710/screenshots/2138720/dribbble-mascot2-01.png",\r\n"image_teaser_url":"https://d13yacurqjgara.cloudfront.net/users/175710/screenshots/2138720/dribbble-mascot2-01_teaser.png",\r\n"image_400_url":"https://d13yacurqjgara.cloudfront.net/users/175710/screenshots/2138720/dribbble-mascot2-01_1x.png",\r\n"player":{\r\n"id":175710,\r\n"name":"Alexey Kuvaldin",\r\n"location":"Herceg Novi, Montenegro",\r\n"followers_count":2459,\r\n"draftees_count":4,\r\n"likes_count":3873,\r\n"likes_received_count":9655,\r\n"comments_count":258,\r\n"comments_received_count":539,\r\n"rebounds_count":12,\r\n"rebounds_received_count":26,\r\n"url":"http://dribbble.com/kuvaldin",\r\n"avatar_url":"https://d13yacurqjgara.cloudfront.net/users/175710/avatars/normal/aaa6b51cd8324d2a3074ee001cf3ce9c.png?1415578559",\r\n"username":"kuvaldin",\r\n"twitter_screen_name":"aprelium",\r\n"website_url":"http://kuvaldin.tumblr.com",\r\n"drafted_by_player_id":39,\r\n"shots_count":81,\r\n"following_count":320,\r\n"created_at":"2012/07/12 14:13:35 -0400"\r\n},\r\n"created_at":"2015/07/08 08:18:47 -0400"\r\n},\r\n{\r\n"id":2138605,\r\n"title":"Marvel loader experiments",\r\n"description":"<p>More fun times with super talented @Bruno Zambelli on creating animations throughout Marvel web and iOS</p>\n\n<p>Which do you prefer?</p>\n\n<p><a href=\"http://www.marvelapp.com/marvelapp\" rel=\"nofollow\">Twitter - @marvelapp</a></p>\n\n<p>Ps: We're hiring Product Designers and front-end engineers in London!\n<br />http://marvel.workable.com/</p>\n\n<p>--------- \n<br />Marvel is a super simple prototyping tool for designers. Get started with unlimited projects for free.</p>\n\n<p>www.marvelapp.com</p>",\r\n"height":600,\r\n"width":800,\r\n"likes_count":139,\r\n"comments_count":18,\r\n"rebounds_count":0,\r\n"url":"http://dribbble.com/shots/2138605-Marvel-loader-experiments",\r\n"short_url":"http://drbl.in/pkVb",\r\n"views_count":1038,\r\n"rebound_source_id": null,\r\n"image_url":"https://d13yacurqjgara.cloudfront.net/users/10743/screenshots/2138605/grid.gif",\r\n"image_teaser_url":"https://d13yacurqjgara.cloudfront.net/users/10743/screenshots/2138605/grid_teaser.gif",\r\n"image_400_url":"https://d13yacurqjgara.cloudfront.net/users/10743/screenshots/2138605/grid_1x.gif",\r\n"player":{\r\n"id":10743,\r\n"name":"Murat Mutlu",\r\n"location":"London",\r\n"followers_count":3997,\r\n"draftees_count":9,\r\n"likes_count":3311,\r\n"likes_received_count":16520,\r\n"comments_count":620,\r\n"comments_received_count":985,\r\n"rebounds_count":2,\r\n"rebounds_received_count":10,\r\n"url":"http://dribbble.com/mutlu82",\r\n"avatar_url":"https://d13yacurqjgara.cloudfront.net/users/10743/avatars/original/SP_A1118.jpg?1343047865",\r\n"username":"mutlu82",\r\n"twitter_screen_name":"mutlu82",\r\n"website_url":"http://www.marvelapp.com",\r\n"drafted_by_player_id":2009,\r\n"shots_count":187,\r\n"following_count":1066,\r\n"created_at":"2011/01/15 09:32:52 -0500"\r\n},\r\n"created_at":"2015/07/08 07:02:24 -0400"\r\n}\r\n]\r\n}